Request method:	GET
Request URI:	https://reqres.in/api/unknown
Proxy:			<none>
Request params:	<none>
Query params:	<none>
Form params:	<none>
Path params:	<none>
Headers:		Accept=*/*
Cookies:		<none>
Multiparts:		<none>
Body:			<none>
HTTP/1.1 200 OK
Date: Fri, 16 Aug 2024 07:13:10 GMT
Content-Type: application/json; charset=utf-8
Transfer-Encoding: chunked
Connection: keep-alive
Report-To: {"group":"heroku-nel","max_age":3600,"endpoints":[{"url":"https://nel.heroku.com/reports?ts=1723364142&sid=c4c9725f-1ab0-44d8-820f-430df2718e11&s=uoysAWWIhHFPiCTqERc2pjKVsMWePI0SQtoqUUY7ZiM%3D"}]}
Reporting-Endpoints: heroku-nel=https://nel.heroku.com/reports?ts=1723364142&sid=c4c9725f-1ab0-44d8-820f-430df2718e11&s=uoysAWWIhHFPiCTqERc2pjKVsMWePI0SQtoqUUY7ZiM%3D
Nel: {"report_to":"heroku-nel","max_age":3600,"success_fraction":0.005,"failure_fraction":0.05,"response_headers":["Via"]}
X-Powered-By: Express
Access-Control-Allow-Origin: *
Etag: W/"2c1-N6Rqerxquq2kgQhL51EiSg4x0R8"
Via: 1.1 vegur
Cache-Control: max-age=14400
CF-Cache-Status: HIT
Age: 4583
Vary: Accept-Encoding
Server: cloudflare
CF-RAY: 8b3f9ec74b508993-DEL
Content-Encoding: gzip

{
    "page": 1,
    "per_page": 6,
    "total": 12,
    "total_pages": 2,
    "data": [
        {
            "id": 1,
            "name": "cerulean",
            "year": 2000,
            "color": "#98B2D1",
            "pantone_value": "15-4020"
        },
        {
            "id": 2,
            "name": "fuchsia rose",
            "year": 2001,
            "color": "#C74375",
            "pantone_value": "17-2031"
        },
        {
            "id": 3,
            "name": "true red",
            "year": 2002,
            "color": "#BF1932",
            "pantone_value": "19-1664"
        },
        {
            "id": 4,
            "name": "aqua sky",
            "year": 2003,
            "color": "#7BC4C4",
            "pantone_value": "14-4811"
        },
        {
            "id": 5,
            "name": "tigerlily",
            "year": 2004,
            "color": "#E2583E",
            "pantone_value": "17-1456"
        },
        {
            "id": 6,
            "name": "blue turquoise",
            "year": 2005,
            "color": "#53B0AE",
            "pantone_value": "15-5217"
        }
    ],
    "support": {
        "url": "https://reqres.in/#support-heading",
        "text": "To keep ReqRes free, contributions towards server costs are appreciated!"
    }
}
Request method:	POST
Request URI:	https://reqres.in/api/users
Proxy:			<none>
Request params:	<none>
Query params:	<none>
Form params:	<none>
Path params:	<none>
Headers:		Accept=*/*
				Content-Type=text/plain; charset=ISO-8859-1
Cookies:		<none>
Multiparts:		<none>
Body:
{"name":"akash","job":"testing"}
HTTP/1.1 201 Created
Date: Fri, 16 Aug 2024 07:13:11 GMT
Content-Type: application/json; charset=utf-8
Content-Length: 51
Connection: keep-alive
Report-To: {"group":"heroku-nel","max_age":3600,"endpoints":[{"url":"https://nel.heroku.com/reports?ts=1723792391&sid=c4c9725f-1ab0-44d8-820f-430df2718e11&s=O5cAVdWOM5gR2dNR5Y%2Bb3IIUVsrdw%2BTj06Gu%2BtpcuFc%3D"}]}
Reporting-Endpoints: heroku-nel=https://nel.heroku.com/reports?ts=1723792391&sid=c4c9725f-1ab0-44d8-820f-430df2718e11&s=O5cAVdWOM5gR2dNR5Y%2Bb3IIUVsrdw%2BTj06Gu%2BtpcuFc%3D
Nel: {"report_to":"heroku-nel","max_age":3600,"success_fraction":0.005,"failure_fraction":0.05,"response_headers":["Via"]}
X-Powered-By: Express
Access-Control-Allow-Origin: *
Etag: W/"33-RWpPJJZOg2GtcnP3DOv6jbi4hI0"
Via: 1.1 vegur
CF-Cache-Status: DYNAMIC
Server: cloudflare
CF-RAY: 8b3f9ecd89f95a0b-DEL

{
    "id": "571",
    "createdAt": "2024-08-16T07:13:11.687Z"
}
Request method:	POST
Request URI:	https://reqres.in/api/users
Proxy:			<none>
Request params:	<none>
Query params:	<none>
Form params:	<none>
Path params:	<none>
Headers:		Accept=*/*
				Content-Type=text/plain; charset=ISO-8859-1
Cookies:		<none>
Multiparts:		<none>
Body:
{"name":"Krishna","job":"QA"}
HTTP/1.1 201 Created
Date: Fri, 16 Aug 2024 07:13:13 GMT
Content-Type: application/json; charset=utf-8
Content-Length: 51
Connection: keep-alive
Report-To: {"group":"heroku-nel","max_age":3600,"endpoints":[{"url":"https://nel.heroku.com/reports?ts=1723792392&sid=c4c9725f-1ab0-44d8-820f-430df2718e11&s=JbJbrcHampVz9UefE%2FEQnr43Sk3T4Ak37jnrJU9OwMQ%3D"}]}
Reporting-Endpoints: heroku-nel=https://nel.heroku.com/reports?ts=1723792392&sid=c4c9725f-1ab0-44d8-820f-430df2718e11&s=JbJbrcHampVz9UefE%2FEQnr43Sk3T4Ak37jnrJU9OwMQ%3D
Nel: {"report_to":"heroku-nel","max_age":3600,"success_fraction":0.005,"failure_fraction":0.05,"response_headers":["Via"]}
X-Powered-By: Express
Access-Control-Allow-Origin: *
Etag: W/"33-C+GSJHCMk1/jlA+6/lJiMbOoZiE"
Via: 1.1 vegur
CF-Cache-Status: DYNAMIC
Server: cloudflare
CF-RAY: 8b3f9ed6492359a2-DEL

{
    "id": "968",
    "createdAt": "2024-08-16T07:13:12.936Z"
}
Request method:	POST
Request URI:	https://reqres.in/api/users
Proxy:			<none>
Request params:	<none>
Query params:	<none>
Form params:	<none>
Path params:	<none>
Headers:		Accept=*/*
				Content-Type=text/plain; charset=ISO-8859-1
Cookies:		<none>
Multiparts:		<none>
Body:
{"name":"Peter","job":"Java Developer"}
HTTP/1.1 201 Created
Date: Fri, 16 Aug 2024 07:13:13 GMT
Content-Type: application/json; charset=utf-8
Content-Length: 50
Connection: keep-alive
Report-To: {"group":"heroku-nel","max_age":3600,"endpoints":[{"url":"https://nel.heroku.com/reports?ts=1723792393&sid=c4c9725f-1ab0-44d8-820f-430df2718e11&s=l8mrsAUaDF2Iw29LJs%2FHiafZCsrLyFc9zMlsatoQ%2BCQ%3D"}]}
Reporting-Endpoints: heroku-nel=https://nel.heroku.com/reports?ts=1723792393&sid=c4c9725f-1ab0-44d8-820f-430df2718e11&s=l8mrsAUaDF2Iw29LJs%2FHiafZCsrLyFc9zMlsatoQ%2BCQ%3D
Nel: {"report_to":"heroku-nel","max_age":3600,"success_fraction":0.005,"failure_fraction":0.05,"response_headers":["Via"]}
X-Powered-By: Express
Access-Control-Allow-Origin: *
Etag: W/"32-IR91Q53wQHuDob1U9HAOE2+5jcA"
Via: 1.1 vegur
CF-Cache-Status: DYNAMIC
Server: cloudflare
CF-RAY: 8b3f9ed97e585512-DEL

{
    "id": "16",
    "createdAt": "2024-08-16T07:13:13.526Z"
}
